%YAML 1.1
%TAG !u! tag:unity3d.com,2011:
--- !u!1045 &1
EditorBuildSettings:
  m_ObjectHideFlags: 0
  serializedVersion: 2
  m_Scenes:
  - enabled: 1
    path: Assets/Levels/Menu.unity
    guid: df0ca18c6c7e06b4396e6c1d08a06780
  - enabled: 1
    path: Assets/Levels/Tutorial.unity
    guid: 9e74635cf93343947aaacba21aeb9ebb
  - enabled: 1
    path: Assets/Levels/End.unity
    guid: 73758a23911b4af4492ce827334512bc
