%YAML 1.1
%TAG !u! tag:unity3d.com,2011:
--- !u!21 &2100000
Material:
  serializedVersion: 6
  m_ObjectHideFlags: 0
  m_PrefabParentObject: {fileID: 0}
  m_PrefabInternal: {fileID: 0}
  m_Name: M_NPC_Mech_A_LOD1
  m_Shader: {fileID: 4800000, guid: 44b98ac01cba588439ce247bb52d048c, type: 3}
  m_ShaderKeywords: _METALLICGLOSSMAP _NORMALMAP _SPECGLOSSMAP
  m_LightmapFlags: 5
  m_EnableInstancingVariants: 0
  m_DoubleSidedGI: 0
  m_CustomRenderQueue: 2000
  stringTagMap: {}
  disabledShaderPasses: []
  m_SavedProperties:
    serializedVersion: 3
    m_TexEnvs:
    - _BumpMap:
        m_Texture: {fileID: 2800000, guid: 73bb7e469bb4bfb4aaf6a18fdc809d71, type: 3}
        m_Scale: {x: 1, y: 1}
        m_Offset: {x: 0, y: 0}
    - _ColorMask:
        m_Texture: {fileID: 2800000, guid: 6565637deee54b043b02c2aada3ab7ff, type: 3}
        m_Scale: {x: 1, y: 1}
        m_Offset: {x: 0, y: 0}
    - _DetailAlbedoMap:
        m_Texture: {fileID: 0}
        m_Scale: {x: 1, y: 1}
        m_Offset: {x: 0, y: 0}
    - _DetailMask:
        m_Texture: {fileID: 0}
        m_Scale: {x: 1, y: 1}
        m_Offset: {x: 0, y: 0}
    - _DetailNormalMap:
        m_Texture: {fileID: 0}
        m_Scale: {x: 1, y: 1}
        m_Offset: {x: 0, y: 0}
    - _DiffuseCM:
        m_Texture: {fileID: 2800000, guid: 703a963deb2de2448ba1315eb2001845, type: 3}
        m_Scale: {x: 1, y: 1}
        m_Offset: {x: 0, y: 0}
    - _EmissionMap:
        m_Texture: {fileID: 0}
        m_Scale: {x: 1, y: 1}
        m_Offset: {x: 0, y: 0}
    - _EmissiveMap:
        m_Texture: {fileID: 0}
        m_Scale: {x: 1, y: 1}
        m_Offset: {x: 0, y: 0}
    - _GlossMap:
        m_Texture: {fileID: 2800000, guid: 4f229edff09eeaa43b3ce327e63931db, type: 3}
        m_Scale: {x: 1, y: 1}
        m_Offset: {x: 0, y: 0}
    - _MainTex:
        m_Texture: {fileID: 2800000, guid: 3a798ba958f8abf4fbc0bd1f47b9f6fd, type: 3}
        m_Scale: {x: 1, y: 1}
        m_Offset: {x: 0, y: 0}
    - _MetallicGlossMap:
        m_Texture: {fileID: 2800000, guid: 90b157a61506fc94a8ed171fc7ac43e6, type: 3}
        m_Scale: {x: 1, y: 1}
        m_Offset: {x: 0, y: 0}
    - _MetallicMap:
        m_Texture: {fileID: 2800000, guid: ca7c94c4921d38545a61e7a2001a370b, type: 3}
        m_Scale: {x: 1, y: 1}
        m_Offset: {x: 0, y: 0}
    - _MetalnessMap:
        m_Texture: {fileID: 0}
        m_Scale: {x: 1, y: 1}
        m_Offset: {x: 0, y: 0}
    - _OcclusionMap:
        m_Texture: {fileID: 2800000, guid: 81c0f72efee2301468a73fb0a12c63f0, type: 3}
        m_Scale: {x: 1, y: 1}
        m_Offset: {x: 0, y: 0}
    - _ParallaxMap:
        m_Texture: {fileID: 0}
        m_Scale: {x: 1, y: 1}
        m_Offset: {x: 0, y: 0}
    - _SpecGlossMap:
        m_Texture: {fileID: 2800000, guid: c2d7e96055258874db7a7363b664710a, type: 3}
        m_Scale: {x: 1, y: 1}
        m_Offset: {x: 0, y: 0}
    - _SpecularMap:
        m_Texture: {fileID: 2800000, guid: 6f175f03709fe6a4ca7797135120bb30, type: 3}
        m_Scale: {x: 1, y: 1}
        m_Offset: {x: 0, y: 0}
    m_Floats:
    - _BumpScale: 1
    - _Cutoff: 0.5
    - _DamageFX: 0
    - _DetailNormalMapScale: 1
    - _DiffuseFactor: 1
    - _DstBlend: 0
    - _EmissionFactor: 1
    - _EmissiveFactor: 1
    - _Glossiness: 1
    - _Metallic: 1
    - _MetalnessFactor: 0
    - _Mode: 0
    - _OcclusionStrength: 1
    - _Outline: 0
    - _Parallax: 0.02
    - _Specular: 1
    - _SpecularColorized: 0.826
    - _SpecularFactor: 1
    - _SrcBlend: 1
    - _UVSec: 0
    - _UVWorldScale: 1
    - _ZWrite: 1
    m_Colors:
    - _Color: {r: 1, g: 1, b: 1, a: 1}
    - _Color1: {r: 0.42409173, g: 0.57760227, b: 0.7794118, a: 1}
    - _Color2: {r: 0.33823532, g: 0.677188, b: 1, a: 1}
    - _DamageColor: {r: 1, g: 1, b: 1, a: 1}
    - _EmissionColor: {r: 0, g: 0, b: 0, a: 1}
    - _EmissiveColor: {r: 1, g: 1, b: 1, a: 1}
    - _MaskedColorA: {r: 0.56801474, g: 0.75735295, b: 0.6084939, a: 1}
    - _MaskedColorB: {r: 1, g: 0.41798615, b: 0.04100001, a: 1}
    - _MaskedColorC: {r: 1, g: 0.19117647, b: 0.24137929, a: 1}
    - _OutlineColor: {r: 0.4338235, g: 0.78914815, b: 1, a: 0.39215687}
    - _SpecColor: {r: 0.2, g: 0.2, b: 0.2, a: 1}
    - _UVScale: {r: 1, g: 1, b: 1, a: 1}
